%YAML 1.1
%TAG !u! tag:unity3d.com,2011:
--- !u!114 &11400000
MonoBehaviour:
  m_ObjectHideFlags: 0
  m_CorrespondingSourceObject: {fileID: 0}
  m_PrefabInstance: {fileID: 0}
  m_PrefabAsset: {fileID: 0}
  m_GameObject: {fileID: 0}
  m_Enabled: 1
  m_EditorHideFlags: 0
  m_Script: {fileID: 11500000, guid: 03d16d0ee65a5421f80026ada6e1381a, type: 3}
  m_Name: CustomColorConfig
  m_EditorClassIdentifier: 
  StarColors:
  - {r: 1, g: 1, b: 1, a: 1}
  - {r: 1, g: 0.9098039, b: 0.40784314, a: 1}
  - {r: 0.627451, g: 0.21960784, b: 0.7764706, a: 1}
  BtnColors:
  - {r: 1, g: 1, b: 1, a: 1}
  - {r: 1, g: 1, b: 1, a: 1}
  - {r: 1, g: 1, b: 1, a: 1}
  EnergyColor:
  - {r: 0.30980393, g: 0.31764707, b: 0.5254902, a: 1}
  - {r: 0.32156864, g: 0.6392157, b: 1, a: 1}
  SignPrefabColor:
  - {r: 0.41960788, g: 0.6, b: 0.7960785, a: 1}
  - {r: 0.48627454, g: 0.08627451, b: 0.227451, a: 1}
  GradeColor:
  - {r: 0.14509805, g: 0.15686275, b: 0.21568629, a: 1}
  - {r: 0.56078434, g: 0.027450982, b: 0.8352942, a: 1}
  - {r: 0.56078434, g: 0.02745098, b: 0.8352941, a: 1}
  TrashColor:
  - {r: 0.4627451, g: 0.4627451, b: 0.4627451, a: 1}
  - {r: 0.9098039, g: 0.3764706, b: 0.3764706, a: 1}
  BtnColor:
  - {r: 1, g: 1, b: 1, a: 1}
  - {r: 0.5137255, g: 0.5137255, b: 0.5137255, a: 1}
