%YAML 1.1
%TAG !u! tag:unity3d.com,2011:
--- !u!114 &11400000
MonoBehaviour:
  m_ObjectHideFlags: 0
  m_CorrespondingSourceObject: {fileID: 0}
  m_PrefabInstance: {fileID: 0}
  m_PrefabAsset: {fileID: 0}
  m_GameObject: {fileID: 0}
  m_Enabled: 1
  m_EditorHideFlags: 0
  m_Script: {fileID: 11500000, guid: d36f33ea9cd601f4b8cb7a9f409ec6c0, type: 3}
  m_Name: RedeemPanelSpritesData
  m_EditorClassIdentifier: 
  m_AtlasName: Assets/Res/FolderMode/UIAtlas/RedeemPanel
  m_SpriteList:
  - {fileID: 21300000, guid: 222a027b42f3522499cc27e05cd5f6af, type: 3}
  - {fileID: 21300000, guid: b2c65683a5711dc4a845aeaa2f7eecdc, type: 3}
  - {fileID: 21300000, guid: fff86ccdbe5e9ff4ca0d2baab2803f2f, type: 3}
  - {fileID: 21300000, guid: c300f05b730c1164a8de807b441184a5, type: 3}
  - {fileID: 21300000, guid: 251295e596649e14e800abc1967d04e7, type: 3}
  - {fileID: 21300000, guid: df9e9788ae702434096c0a8f4fe1013c, type: 3}
  - {fileID: 21300000, guid: 066730a07b307d6488d664bc4df2cfbd, type: 3}
  - {fileID: 21300000, guid: a5bef14a7b0dc964bbd5aa0f9e4e85d4, type: 3}
  - {fileID: 21300000, guid: c8b4a07a025e5e6429c93702285fe913, type: 3}
  - {fileID: 21300000, guid: df2c6d2be68d54b42b658b6a9e97970c, type: 3}
  - {fileID: 21300000, guid: dc9b35e08c09d17408b06922d5a00ff5, type: 3}
  - {fileID: 21300000, guid: d685d6c3e16518a4a94cb6d7b9d99dec, type: 3}
  - {fileID: 21300000, guid: b9496e5e6c89a394b9a82939013cb9b6, type: 3}
  - {fileID: 21300000, guid: 8aab864b97d60724b8336cf9edfcd587, type: 3}
  - {fileID: 21300000, guid: 76b90516ad0d3480aa3978fcf917ad26, type: 3}
  - {fileID: 21300000, guid: 751bb21cecbc017479f31ab5726eeda2, type: 3}
  - {fileID: 21300000, guid: f39e033b7fa8e484fbc6abd49e0c033a, type: 3}
  - {fileID: 21300000, guid: f8eab8b20971c6946af83f93ffc44297, type: 3}
  - {fileID: 21300000, guid: 48af9717dddf7d74c8dbf2206f8511a5, type: 3}
  - {fileID: 21300000, guid: 50bc28230e1d5674d8a38f8f2efd7a8b, type: 3}
  - {fileID: 21300000, guid: 60c784cc9ada0bb48870ac496ed364e2, type: 3}
  - {fileID: 21300000, guid: 35f0ce8fff65e1d44acef3c40f67680b, type: 3}
  - {fileID: 21300000, guid: 629a56b46b1451a4bbc053e42d8bbec5, type: 3}
  - {fileID: 21300000, guid: 182e8e9e210619743aaf3ce396995d8b, type: 3}
  - {fileID: 21300000, guid: 172759aca27fcb0408c53cf6620c3cae, type: 3}
  - {fileID: 21300000, guid: 8ff0bbf9eb7b486408bf597cdbe55a6a, type: 3}
  - {fileID: 21300000, guid: 1be343b93947c41298acb4ce0a42a45e, type: 3}
  - {fileID: 21300000, guid: dd414253f711a4ca79393fb19c80eeef, type: 3}
  - {fileID: 21300000, guid: b2a8f005a0f78694aa06cfdd0e0b65ca, type: 3}
